00000400
00000440
00000480
000004c0
00000500
00000540
00000580
000005c0
00000600
00000640
00000680
000006c0
00000700
00000740
00000780
000007c0
00000410
00000450
00000490
000004d0
00000510
00000550
00000590
000005d0
00000610
00000650
00000690
000006d0
00000710
00000750
00000790
000007d0
00000420
00000460
000004a0
000004e0
00000520
00000560
000005a0
000005e0
00000620
00000660
000006a0
000006e0
00000720
00000760
000007a0
000007e0
00000430
00000470
000004b0
000004f0
00000530
00000570
000005b0
000005f0
00000630
00000670
000006b0
000006f0
00000730
00000770
000007b0
000007f0
