**********************
* Main memory
**********************
  addr | data
  0 | 04000000000000000000000000000000
  1 | 04111111111111111111111111111111
  2 | 04222222222222222222222222222222
  3 | 04333333333333333333333333333333
  4 | 04444444444444444444444444444444
  5 | 04555555555555555555555555555555
  6 | 04666666666666666666666666666666
  7 | 04777777777777777777777777777777
  8 | 04888888888888888888888888888888
  9 | 04999999999999999999999999999999
 10 | 04aaaaaaaaaaaaaaaaaaaaaaaaaaaaaa
 11 | 04bbbbbbbbbbbbbbbbbbbbbbbbbbbbbb
 12 | 04cccccccccccccccccccccccccccccc
 13 | 04dddddddddddddddddddddddddddddd
 14 | 04eeeeeeeeeeeeeeeeeeeeeeeeeeeeee
 15 | 04ffffffffffffffffffffffffffffff
 16 | 14000000000000000000000000000000
 17 | 14111111111111111111111111111111
 18 | 14222222222222222222222222222222
 19 | 14333333333333333333333333333333
 20 | 14444444444444444444444444444444
 21 | 14555555555555555555555555555555
 22 | 14666666666666666666666666666666
 23 | 14777777777777777777777777777777
 24 | 14888888888888888888888888888888
 25 | 14999999999999999999999999999999
 26 | 14aaaaaaaaaaaaaaaaaaaaaaaaaaaaaa
 27 | 14bbbbbbbbbbbbbbbbbbbbbbbbbbbbbb
 28 | 14cccccccccccccccccccccccccccccc
 29 | 14dddddddddddddddddddddddddddddd
 30 | 14eeeeeeeeeeeeeeeeeeeeeeeeeeeeee
 31 | 14ffffffffffffffffffffffffffffff
 32 | 24000000000000000000000000000000
 33 | 24111111111111111111111111111111
 34 | 24222222222222222222222222222222
 35 | 24333333333333333333333333333333
 36 | 24444444444444444444444444444444
 37 | 24555555555555555555555555555555
 38 | 24666666666666666666666666666666
 39 | 24777777777777777777777777777777
 40 | 24888888888888888888888888888888
 41 | 24999999999999999999999999999999
 42 | 24aaaaaaaaaaaaaaaaaaaaaaaaaaaaaa
 43 | 24bbbbbbbbbbbbbbbbbbbbbbbbbbbbbb
 44 | 24cccccccccccccccccccccccccccccc
 45 | 24dddddddddddddddddddddddddddddd
 46 | 24eeeeeeeeeeeeeeeeeeeeeeeeeeeeee
 47 | 24ffffffffffffffffffffffffffffff
 48 | 34000000000000000000000000000000
 49 | 34111111111111111111111111111111
 50 | 34222222222222222222222222222222
 51 | 34333333333333333333333333333333
 52 | 34444444444444444444444444444444
 53 | 34555555555555555555555555555555
 54 | 34666666666666666666666666666666
 55 | 34777777777777777777777777777777
 56 | 34888888888888888888888888888888
 57 | 34999999999999999999999999999999
 58 | 34aaaaaaaaaaaaaaaaaaaaaaaaaaaaaa
 59 | 34bbbbbbbbbbbbbbbbbbbbbbbbbbbbbb
 60 | 34cccccccccccccccccccccccccccccc
 61 | 34dddddddddddddddddddddddddddddd
 62 | 34eeeeeeeeeeeeeeeeeeeeeeeeeeeeee
 63 | 34ffffffffffffffffffffffffffffff
