**********************
* Main memory
**********************
  addr | data
  0 | 07000000000000000000000000000000
  1 | 07111111111111111111111111111111
  2 | 07222222222222222222222222222222
  3 | 07333333333333333333333333333333
  4 | 07444444444444444444444444444444
  5 | 07555555555555555555555555555555
  6 | 07666666666666666666666666666666
  7 | 07777777777777777777777777777777
  8 | 07888888888888888888888888888888
  9 | 07999999999999999999999999999999
 10 | 07aaaaaaaaaaaaaaaaaaaaaaaaaaaaaa
 11 | 07bbbbbbbbbbbbbbbbbbbbbbbbbbbbbb
 12 | 07cccccccccccccccccccccccccccccc
 13 | 07dddddddddddddddddddddddddddddd
 14 | 07eeeeeeeeeeeeeeeeeeeeeeeeeeeeee
 15 | 07ffffffffffffffffffffffffffffff
 16 | 17000000000000000000000000000000
 17 | 17111111111111111111111111111111
 18 | 17222222222222222222222222222222
 19 | 17333333333333333333333333333333
 20 | 17444444444444444444444444444444
 21 | 17555555555555555555555555555555
 22 | 17666666666666666666666666666666
 23 | 17777777777777777777777777777777
 24 | 17888888888888888888888888888888
 25 | 17999999999999999999999999999999
 26 | 17aaaaaaaaaaaaaaaaaaaaaaaaaaaaaa
 27 | 17bbbbbbbbbbbbbbbbbbbbbbbbbbbbbb
 28 | 17cccccccccccccccccccccccccccccc
 29 | 17dddddddddddddddddddddddddddddd
 30 | 17eeeeeeeeeeeeeeeeeeeeeeeeeeeeee
 31 | 17ffffffffffffffffffffffffffffff
 32 | 27000000000000000000000000000000
 33 | 27111111111111111111111111111111
 34 | 27222222222222222222222222222222
 35 | 27333333333333333333333333333333
 36 | 27444444444444444444444444444444
 37 | 27555555555555555555555555555555
 38 | 27666666666666666666666666666666
 39 | 27777777777777777777777777777777
 40 | 27888888888888888888888888888888
 41 | 27999999999999999999999999999999
 42 | 27aaaaaaaaaaaaaaaaaaaaaaaaaaaaaa
 43 | 27bbbbbbbbbbbbbbbbbbbbbbbbbbbbbb
 44 | 27cccccccccccccccccccccccccccccc
 45 | 27dddddddddddddddddddddddddddddd
 46 | 27eeeeeeeeeeeeeeeeeeeeeeeeeeeeee
 47 | 27ffffffffffffffffffffffffffffff
 48 | 37000000000000000000000000000000
 49 | 37111111111111111111111111111111
 50 | 37222222222222222222222222222222
 51 | 37333333333333333333333333333333
 52 | 37444444444444444444444444444444
 53 | 37555555555555555555555555555555
 54 | 37666666666666666666666666666666
 55 | 37777777777777777777777777777777
 56 | 37888888888888888888888888888888
 57 | 37999999999999999999999999999999
 58 | 37aaaaaaaaaaaaaaaaaaaaaaaaaaaaaa
 59 | 37bbbbbbbbbbbbbbbbbbbbbbbbbbbbbb
 60 | 37cccccccccccccccccccccccccccccc
 61 | 37dddddddddddddddddddddddddddddd
 62 | 37eeeeeeeeeeeeeeeeeeeeeeeeeeeeee
 63 | 37ffffffffffffffffffffffffffffff
