**********************
* Main memory
**********************
  addr | data
  0 | 06000000000000000000000000000000
  1 | 06111111111111111111111111111111
  2 | 06222222222222222222222222222222
  3 | 06333333333333333333333333333333
  4 | 06444444444444444444444444444444
  5 | 06555555555555555555555555555555
  6 | 06666666666666666666666666666666
  7 | 06777777777777777777777777777777
  8 | 06888888888888888888888888888888
  9 | 06999999999999999999999999999999
 10 | 06aaaaaaaaaaaaaaaaaaaaaaaaaaaaaa
 11 | 06bbbbbbbbbbbbbbbbbbbbbbbbbbbbbb
 12 | 06cccccccccccccccccccccccccccccc
 13 | 06dddddddddddddddddddddddddddddd
 14 | 06eeeeeeeeeeeeeeeeeeeeeeeeeeeeee
 15 | 06ffffffffffffffffffffffffffffff
 16 | 16000000000000000000000000000000
 17 | 16111111111111111111111111111111
 18 | 16222222222222222222222222222222
 19 | 16333333333333333333333333333333
 20 | 16444444444444444444444444444444
 21 | 16555555555555555555555555555555
 22 | 16666666666666666666666666666666
 23 | 16777777777777777777777777777777
 24 | 16888888888888888888888888888888
 25 | 16999999999999999999999999999999
 26 | 16aaaaaaaaaaaaaaaaaaaaaaaaaaaaaa
 27 | 16bbbbbbbbbbbbbbbbbbbbbbbbbbbbbb
 28 | 16cccccccccccccccccccccccccccccc
 29 | 16dddddddddddddddddddddddddddddd
 30 | 16eeeeeeeeeeeeeeeeeeeeeeeeeeeeee
 31 | 16ffffffffffffffffffffffffffffff
 32 | 26000000000000000000000000000000
 33 | 26111111111111111111111111111111
 34 | 26222222222222222222222222222222
 35 | 26333333333333333333333333333333
 36 | 26444444444444444444444444444444
 37 | 26555555555555555555555555555555
 38 | 26666666666666666666666666666666
 39 | 26777777777777777777777777777777
 40 | 26888888888888888888888888888888
 41 | 26999999999999999999999999999999
 42 | 26aaaaaaaaaaaaaaaaaaaaaaaaaaaaaa
 43 | 26bbbbbbbbbbbbbbbbbbbbbbbbbbbbbb
 44 | 26cccccccccccccccccccccccccccccc
 45 | 26dddddddddddddddddddddddddddddd
 46 | 26eeeeeeeeeeeeeeeeeeeeeeeeeeeeee
 47 | 26ffffffffffffffffffffffffffffff
 48 | 36000000000000000000000000000000
 49 | 36111111111111111111111111111111
 50 | 36222222222222222222222222222222
 51 | 36333333333333333333333333333333
 52 | 36444444444444444444444444444444
 53 | 36555555555555555555555555555555
 54 | 36666666666666666666666666666666
 55 | 36777777777777777777777777777777
 56 | 36888888888888888888888888888888
 57 | 36999999999999999999999999999999
 58 | 36aaaaaaaaaaaaaaaaaaaaaaaaaaaaaa
 59 | 36bbbbbbbbbbbbbbbbbbbbbbbbbbbbbb
 60 | 36cccccccccccccccccccccccccccccc
 61 | 36dddddddddddddddddddddddddddddd
 62 | 36eeeeeeeeeeeeeeeeeeeeeeeeeeeeee
 63 | 36ffffffffffffffffffffffffffffff
