24000000000000000000000000000000
24111111111111111111111111111111
24222222222222222222222222222222
24333333333333333333333333333333
24444444444444444444444444444444
24555555555555555555555555555555
24666666666666666666666666666666
24777777777777777777777777777777
24888888888888888888888888888888
24999999999999999999999999999999
24aaaaaaaaaaaaaaaaaaaaaaaaaaaaaa
24bbbbbbbbbbbbbbbbbbbbbbbbbbbbbb
24cccccccccccccccccccccccccccccc
24dddddddddddddddddddddddddddddd
24eeeeeeeeeeeeeeeeeeeeeeeeeeeeee
24ffffffffffffffffffffffffffffff
25000000000000000000000000000000
25111111111111111111111111111111
25222222222222222222222222222222
25333333333333333333333333333333
25444444444444444444444444444444
25555555555555555555555555555555
25666666666666666666666666666666
25777777777777777777777777777777
25888888888888888888888888888888
25999999999999999999999999999999
25aaaaaaaaaaaaaaaaaaaaaaaaaaaaaa
25bbbbbbbbbbbbbbbbbbbbbbbbbbbbbb
25cccccccccccccccccccccccccccccc
25dddddddddddddddddddddddddddddd
25eeeeeeeeeeeeeeeeeeeeeeeeeeeeee
25ffffffffffffffffffffffffffffff
26000000000000000000000000000000
26111111111111111111111111111111
26222222222222222222222222222222
26333333333333333333333333333333
26444444444444444444444444444444
26555555555555555555555555555555
26666666666666666666666666666666
26777777777777777777777777777777
26888888888888888888888888888888
26999999999999999999999999999999
26aaaaaaaaaaaaaaaaaaaaaaaaaaaaaa
26bbbbbbbbbbbbbbbbbbbbbbbbbbbbbb
26cccccccccccccccccccccccccccccc
26dddddddddddddddddddddddddddddd
26eeeeeeeeeeeeeeeeeeeeeeeeeeeeee
26ffffffffffffffffffffffffffffff
27000000000000000000000000000000
27111111111111111111111111111111
27222222222222222222222222222222
27333333333333333333333333333333
27444444444444444444444444444444
27555555555555555555555555555555
27666666666666666666666666666666
27777777777777777777777777777777
27888888888888888888888888888888
27999999999999999999999999999999
27aaaaaaaaaaaaaaaaaaaaaaaaaaaaaa
27bbbbbbbbbbbbbbbbbbbbbbbbbbbbbb
27cccccccccccccccccccccccccccccc
27dddddddddddddddddddddddddddddd
27eeeeeeeeeeeeeeeeeeeeeeeeeeeeee
27ffffffffffffffffffffffffffffff
