04000000000000000000000000000000
04111111111111111111111111111111
04222222222222222222222222222222
04333333333333333333333333333333
04444444444444444444444444444444
04555555555555555555555555555555
04666666666666666666666666666666
04777777777777777777777777777777
04888888888888888888888888888888
04999999999999999999999999999999
04aaaaaaaaaaaaaaaaaaaaaaaaaaaaaa
04bbbbbbbbbbbbbbbbbbbbbbbbbbbbbb
04cccccccccccccccccccccccccccccc
04dddddddddddddddddddddddddddddd
04eeeeeeeeeeeeeeeeeeeeeeeeeeeeee
04ffffffffffffffffffffffffffffff
05000000000000000000000000000000
05111111111111111111111111111111
05222222222222222222222222222222
05333333333333333333333333333333
05444444444444444444444444444444
05555555555555555555555555555555
05666666666666666666666666666666
05777777777777777777777777777777
05888888888888888888888888888888
05999999999999999999999999999999
05aaaaaaaaaaaaaaaaaaaaaaaaaaaaaa
05bbbbbbbbbbbbbbbbbbbbbbbbbbbbbb
05cccccccccccccccccccccccccccccc
05dddddddddddddddddddddddddddddd
05eeeeeeeeeeeeeeeeeeeeeeeeeeeeee
05ffffffffffffffffffffffffffffff
06000000000000000000000000000000
06111111111111111111111111111111
06222222222222222222222222222222
06333333333333333333333333333333
06444444444444444444444444444444
06555555555555555555555555555555
06666666666666666666666666666666
06777777777777777777777777777777
06888888888888888888888888888888
06999999999999999999999999999999
06aaaaaaaaaaaaaaaaaaaaaaaaaaaaaa
06bbbbbbbbbbbbbbbbbbbbbbbbbbbbbb
06cccccccccccccccccccccccccccccc
06dddddddddddddddddddddddddddddd
06eeeeeeeeeeeeeeeeeeeeeeeeeeeeee
06ffffffffffffffffffffffffffffff
07000000000000000000000000000000
07111111111111111111111111111111
07222222222222222222222222222222
07333333333333333333333333333333
07444444444444444444444444444444
07555555555555555555555555555555
07666666666666666666666666666666
07777777777777777777777777777777
07888888888888888888888888888888
07999999999999999999999999999999
07aaaaaaaaaaaaaaaaaaaaaaaaaaaaaa
07bbbbbbbbbbbbbbbbbbbbbbbbbbbbbb
07cccccccccccccccccccccccccccccc
07dddddddddddddddddddddddddddddd
07eeeeeeeeeeeeeeeeeeeeeeeeeeeeee
07ffffffffffffffffffffffffffffff
