34000000000000000000000000000000
34111111111111111111111111111111
34222222222222222222222222222222
34333333333333333333333333333333
34444444444444444444444444444444
34555555555555555555555555555555
34666666666666666666666666666666
34777777777777777777777777777777
34888888888888888888888888888888
34999999999999999999999999999999
34aaaaaaaaaaaaaaaaaaaaaaaaaaaaaa
34bbbbbbbbbbbbbbbbbbbbbbbbbbbbbb
34cccccccccccccccccccccccccccccc
34dddddddddddddddddddddddddddddd
34eeeeeeeeeeeeeeeeeeeeeeeeeeeeee
34ffffffffffffffffffffffffffffff
35000000000000000000000000000000
35111111111111111111111111111111
35222222222222222222222222222222
35333333333333333333333333333333
35444444444444444444444444444444
35555555555555555555555555555555
35666666666666666666666666666666
35777777777777777777777777777777
35888888888888888888888888888888
35999999999999999999999999999999
35aaaaaaaaaaaaaaaaaaaaaaaaaaaaaa
35bbbbbbbbbbbbbbbbbbbbbbbbbbbbbb
35cccccccccccccccccccccccccccccc
35dddddddddddddddddddddddddddddd
35eeeeeeeeeeeeeeeeeeeeeeeeeeeeee
35ffffffffffffffffffffffffffffff
36000000000000000000000000000000
36111111111111111111111111111111
36222222222222222222222222222222
36333333333333333333333333333333
36444444444444444444444444444444
36555555555555555555555555555555
36666666666666666666666666666666
36777777777777777777777777777777
36888888888888888888888888888888
36999999999999999999999999999999
36aaaaaaaaaaaaaaaaaaaaaaaaaaaaaa
36bbbbbbbbbbbbbbbbbbbbbbbbbbbbbb
36cccccccccccccccccccccccccccccc
36dddddddddddddddddddddddddddddd
36eeeeeeeeeeeeeeeeeeeeeeeeeeeeee
36ffffffffffffffffffffffffffffff
37000000000000000000000000000000
37111111111111111111111111111111
37222222222222222222222222222222
37333333333333333333333333333333
37444444444444444444444444444444
37555555555555555555555555555555
37666666666666666666666666666666
37777777777777777777777777777777
37888888888888888888888888888888
37999999999999999999999999999999
37aaaaaaaaaaaaaaaaaaaaaaaaaaaaaa
37bbbbbbbbbbbbbbbbbbbbbbbbbbbbbb
37cccccccccccccccccccccccccccccc
37dddddddddddddddddddddddddddddd
37eeeeeeeeeeeeeeeeeeeeeeeeeeeeee
37ffffffffffffffffffffffffffffff
