00000c00
00000c40
00000c80
00000cc0
00000d00
00000d40
00000d80
00000dc0
00000e00
00000e40
00000e80
00000ec0
00000f00
00000f40
00000f80
00000fc0
00000c10
00000c50
00000c90
00000cd0
00000d10
00000d50
00000d90
00000dd0
00000e10
00000e50
00000e90
00000ed0
00000f10
00000f50
00000f90
00000fd0
00000c20
00000c60
00000ca0
00000ce0
00000d20
00000d60
00000da0
00000de0
00000e20
00000e60
00000ea0
00000ee0
00000f20
00000f60
00000fa0
00000fe0
00000c30
00000c70
00000cb0
00000cf0
00000d30
00000d70
00000db0
00000df0
00000e30
00000e70
00000eb0
00000ef0
00000f30
00000f70
00000fb0
00000ff0
